{
  "items": [
    {
      "id": "7",
      "name": "Restarurant test6",
      "city": "Pula",
      "address": "Some address 6",
      "latitude": "44.8672919",
      "longitude": "13.8494811",
      "phone": "5555555",
      "photo": "http://www.piksel-print.hr/wp-content/uploads/2015/07/Restoran-Kristal-znak-i-logo-500x363.jpg",
      "delivery": "true",
      "pickUp": "true",
      "description": "Lorem Ipsum is simply dummy text of the printing and typesetting industry. Lorem Ipsum has been the industry's standard dummy text ever since the 1500s",
      "openingHours": [
        {
          "id": "9",
          "day": "1",
          "from": "08:00",
          "to": "16:00"
        },
        {
          "id": "10",
          "day": "2",
          "from": "08:00",
          "to": "16:00"
        },
        {
          "id": "11",
          "day": "3",
          "from": "08:00",
          "to": "16:00"
        },
        {
          "id": "12",
          "day": "4",
          "from": "08:00",
          "to": "16:00"
        },
        {
          "id": "13",
          "day": "5",
          "from": "08:00",
          "to": "16:00"
        },
        {
          "id": "15",
          "day": "6",
          "from": "10:00",
          "to": "20:00"
        },
        {
          "id": "16",
          "day": "7",
          "from": "10:00",
          "to": "20:00"
        }
      ]
    },
    {
      "id": "2",
      "name": "Restarurant test1",
      "city": "Pula",
      "address": "Some address 1",
      "latitude": "44.8701229",
      "longitude": "13.8475767",
      "phone": "0000000",
      "photo": "https://image.freepik.com/free-vector/restaurant-logo_23-2147506959.jpg",
      "delivery": "true",
      "pickUp": "true",
      "description": "Lorem Ipsum is simply dummy text of the printing and typesetting industry. Lorem Ipsum has been the industry's standard dummy text ever since the 1500s",
      "menus": [
        {
          "id": "7",
          "companyId": "2",
          "type": "V",
          "menuItems": [
            {
              "id": "9",
              "menuId": "7",
              "name": "Salate",
              "price": "20.33",
              "rate": "1",
              "photo": "https://www.cicis.com/media/1235/saladbar_saladmix.png",
              "discount": "0",
              "description": "Odlično jelo za ručak ili večeru. Lagano i fino, a usto i zdravo!",
              "menuItemOptions": [
                {
                  "id": "44",
                  "menuItemId": "9",
                  "name": "Mala",
                  "price": "20.33",
                  "menuItemOptionSupplements": [
                    {
                      "id": "80",
                      "menuItemOptionId": "44",
                      "name": "Majoneza",
                      "price": "20.33"
                    },
                    {
                      "id": "81",
                      "menuItemOptionId": "44",
                      "name": "Ketchup",
                      "price": "20.33"
                    },
                    {
                      "id": "82",
                      "menuItemOptionId": "44",
                      "name": "Ajvar",
                      "price": "20.33"
                    }
                  ]
                },
                {
                  "id": "45",
                  "menuItemId": "9",
                  "name": "Velika",
                  "price": "30.55",
                  "menuItemOptionSupplements": [
                    {
                      "id": "83",
                      "menuItemOptionId": "45",
                      "name": "Majoneza",
                      "price": "34.33"
                    },
                    {
                      "id": "84",
                      "menuItemOptionId": "45",
                      "name": "Ketchup",
                      "price": "33.33"
                    },
                    {
                      "id": "85",
                      "menuItemOptionId": "45",
                      "name": "Ajvar",
                      "price": "36.33"
                    }
                  ]
                }
              ]
            },
            {
              "id": "10",
              "menuId": "7",
              "name": "Salate small",
              "price": "43.32",
              "rate": "2",
              "photo": "https://recipes.heart.org/-/media/aha/recipe/recipe-images/mediterranean-salad.jpg?h=672&w=940&la=en&hash=37880DC5279DCD1DFC0EB5A60153B3705C50E568",
              "discount": "10",
              "description": "Smaller portion of salate with some extra ingredients"
            },
            {
              "id": "11",
              "menuId": "7",
              "name": "Salate big",
              "price": "5.99",
              "rate": "5",
              "photo": "https://www.ndtv.com/cooks/images/tossed-mixed-salad-620.jpg",
              "discount": "5",
              "description": "Odlično jelo za ručak ili večeru. Lagano i fino, a usto i zdravo!"
            }
          ]
        },
        {
          "id": "77",
          "companyId": "2",
          "type": "P",
          "menuItems": [
            {
              "id": "12",
              "menuId": "77",
              "name": "Pizza mješana",
              "price": "50.99",
              "rate": "5",
              "photo": "http://www.camyspizzasurrey.com/wp-content/uploads/2015/10/home_pizza_slider_1.png",
              "discount": "5",
              "description": "Odlično jelo za ručak ili večeru. Lagano i fino, a usto i zdravo!"
            },
            {
              "id": "13",
              "menuId": "77",
              "name": "Pizza šunka sir",
              "price": "23.32",
              "rate": "4",
              "photo": "https://istanbulcuisinewa.com/wp-content/uploads/2017/06/pizza_adven_zestypepperoni-600x600.png",
              "discount": "5",
              "description": "Odlično jelo za ručak ili večeru. Lagano i fino, a usto i zdravo!"
            }
          ]
        }
      ]
    },
    {
      "id": "3",
      "name": "Restarurant test2",
      "city": "Pula",
      "address": "Some address 2",
      "latitude": "44.8701008",
      "longitude": "13.849889",
      "phone": "11111111",
      "photo": "http://www.restaurant-feral.com/konobalogo.png",
      "delivery": "false",
      "pickUp": "true",
      "description": "Lorem Ipsum is simply dummy text of the printing and typesetting industry. Lorem Ipsum has been the industry's standard dummy text ever since the 1500s",
      "menus": [
        {
          "id": "12",
          "companyId": "3",
          "type": "M",
          "menuItems": [
            {
              "id": "13",
              "menuId": "12",
              "name": "Stake",
              "price": "120.33",
              "rate": "3",
              "photo": "https://foodstreet.pk/wp-content/uploads/2015/06/juicy-steak.jpg",
              "discount": "0",
              "description": "Odlično jelo za ručak ili večeru. Lagano i fino, a usto i zdravo!"
            },
            {
              "id": "14",
              "menuId": "12",
              "name": "Stake small",
              "price": "143.32",
              "rate": "0",
              "photo": "http://static6.uk.businessinsider.com/image/54639154dd08957c558b4573-480/rib-steak-at-new-york-steakhouse-old-homestead.jpg",
              "discount": "10",
              "description": "Smaller portion of stake with some extra ingredients"
            },
            {
              "id": "15",
              "menuId": "12",
              "name": "Stake big",
              "price": "250.99",
              "rate": "1",
              "photo": "https://img.sndimg.com/food/image/upload/w_555,h_416,c_fit,fl_progressive,q_95/v1/img/recipes/21/36/59/picUmHJUy.jpg",
              "discount": "5",
              "description": "Big portion of stake"
            }
          ]
        }
      ]
    },
    {
      "id": "4",
      "name": "Restarurant test3",
      "city": "Pula",
      "address": "Some address 3",
      "latitude": "44.8699143",
      "longitude": "13.8514041",
      "phone": "222222222",
      "photo": "https://logopond.com/logos/33ad7ed4b6c243941289d647a0cd6efc.png",
      "delivery": "false",
      "pickUp": "true",
      "description": "Lorem Ipsum is simply dummy text of the printing and typesetting industry. Lorem Ipsum has been the industry's standard dummy text ever since the 1500s"
    },
    {
      "id": "5",
      "name": "Restarurant test4",
      "city": "Pula",
      "address": "Some address 4",
      "latitude": "44.8684779",
      "longitude": "13.8510951",
      "phone": "3333333",
      "photo": "http://devfloat.net/wp-content/uploads/2016/04/aldo-pizza-logo.jpg",
      "delivery": "false",
      "pickUp": "true"
    },
    {
      "id": "6",
      "name": "Restarurant test5",
      "city": "Pula",
      "address": "Some address 5",
      "latitude": "44.8672909",
      "longitude": "13.8494801",
      "phone": "44444444",
      "photo": "http://pizzeriaguerrilla.ca/wp-content/uploads/2016/10/Pizzeria_Logo-Drop.png",
      "delivery": "true",
      "pickUp": "true"
    }
  ]
}
